 
@startuml
(*) -->  Entrypoint
if "seg1 and seg2 have white pixels amounts below thresholds" then
    -->[true] if "centre segment has white pixels amount above threshold AND first time (vehicleDetected flag is unset)" then
        -->[true] "set vehicleDetected flag"
        -->(*)
        
    else
        -->[false](*)
    endif
else
    -->[false] if "ROI is for top/left lane AND vehicle is present (detectedCounter > 0)" then
        -->[true] if "white pixels in bottom/right segment are above threshold" then
            -->[true] "vehicle is leaving ROI (clear vehicleDetected flag and detectedCounter)"
                -->(*)
            else
                -->[false](*)
            endif
    else
        -->[(false) ROI is for bottom/right lane] if "vehicle is present (detectedCounter > 0)" then
            -->[true] if "white pixels in top/left segment are above threshold" then
                    -->[true] "vehicle is leaving ROI (clear vehicleDetected flag and detectedCounter)"
                    -->(*)
                    else
                        -->[false](*)
                    endif
                else
                    -->[false](*)
                endif
    endif
--> (*)

@enduml
